\BOOKMARK [1][-]{section.1}{Introduction}{}% 1
\BOOKMARK [1][-]{section.2}{Public Interface}{}% 2
\BOOKMARK [1][-]{section.3}{Data Structures}{}% 3
\BOOKMARK [2][-]{subsection.3.1}{CNF Inversion}{section.3}% 4
\BOOKMARK [2][-]{subsection.3.2}{CNF Representation and Unsatisfiable Cores}{section.3}% 5
\BOOKMARK [2][-]{subsection.3.3}{Construction and Getters}{section.3}% 6
\BOOKMARK [1][-]{section.4}{Computation}{}% 7
