\relax 
\providecommand\hyper@newdestlabel[2]{}
\providecommand\HyperFirstAtBeginDocument{\AtBeginDocument}
\HyperFirstAtBeginDocument{\ifx\hyper@anchor\@undefined
\global\let\oldcontentsline\contentsline
\gdef\contentsline#1#2#3#4{\oldcontentsline{#1}{#2}{#3}}
\global\let\oldnewlabel\newlabel
\gdef\newlabel#1#2{\newlabelxx{#1}#2}
\gdef\newlabelxx#1#2#3#4#5#6{\oldnewlabel{#1}{{#2}{#3}}}
\AtEndDocument{\ifx\hyper@anchor\@undefined
\let\contentsline\oldcontentsline
\let\newlabel\oldnewlabel
\fi}
\fi}
\global\let\hyper@last\relax 
\gdef\HyperFirstAtBeginDocument#1{#1}
\providecommand\HyField@AuxAddToFields[1]{}
\providecommand\HyField@AuxAddToCoFields[2]{}
\@writefile{toc}{\contentsline {section}{\numberline {1}Introduction}{1}{section.1}}
\newlabel{proposition:redundancy}{{1}{1}{}{proposition.1}{}}
\@writefile{toc}{\contentsline {section}{\numberline {2}Public Interface}{1}{section.2}}
\newsublabel{NWBBR8-BBR8.2-1}{{}{1}}
\newsublabel{NWBBR8-BBR8.3-1}{{}{1}}
\newsublabel{NWBBR8-DefO-1}{{}{2}}
\newsublabel{NWBBR8-PubE-1}{{}{2}}
\@writefile{toc}{\contentsline {section}{\numberline {3}Data Structures}{2}{section.3}}
\@writefile{toc}{\contentsline {subsection}{\numberline {3.1}CNF Inversion}{2}{subsection.3.1}}
\newsublabel{NWBBR8-DefO-2}{{}{2}}
\newsublabel{NWBBR8-PriF-1}{{}{2}}
\newsublabel{NWBBR8-PriF-2}{{}{2}}
\newsublabel{NWBBR8-ImpE-1}{{}{3}}
\newsublabel{NWBBR8-PriF-3}{{}{3}}
\newsublabel{NWBBR8-ImpE-2}{{}{3}}
\@writefile{toc}{\contentsline {subsection}{\numberline {3.2}CNF Representation and Unsatisfiable Cores}{4}{subsection.3.2}}
\newsublabel{NWBBR8-PriF-4}{{}{4}}
\newsublabel{NWBBR8-PriF-5}{{}{4}}
\newsublabel{NWBBR8-ImpE-3}{{}{5}}
\@writefile{toc}{\contentsline {subsection}{\numberline {3.3}Construction and Getters}{5}{subsection.3.3}}
\newsublabel{NWBBR8-PriF-6}{{}{5}}
\newsublabel{NWBBR8-ImpE-4}{{}{5}}
\newsublabel{NWBBR8-InlL-1}{{}{6}}
\newsublabel{NWBBR8-InlL-2}{{}{6}}
\@writefile{toc}{\contentsline {section}{\numberline {4}Computation}{6}{section.4}}
\newsublabel{NWBBR8-DefO-3}{{}{6}}
\newsublabel{NWBBR8-ImpE-5}{{}{7}}
\newsublabel{NWBBR8-ImpE-6}{{}{8}}
\newsublabel{NWBBR8-ImpE-7}{{}{8}}
\newsublabel{NWBBR8-ImpE-8}{{}{9}}
\newsublabel{NWBBR8-PriF-7}{{}{9}}
\newsublabel{NWBBR8-ImpE-9}{{}{10}}
\newsublabel{NWBBR8-ImpE-A}{{}{10}}
\nwixadds{c}{{BBRed.cc}{NWBBR8-BBR8.3-1}{\nwixd {NWBBR8-BBR8.3-1}}}
\nwixadds{c}{{BBRed.hh}{NWBBR8-BBR8.2-1}{\nwixd {NWBBR8-BBR8.2-1}}}
\nwixadds{c}{{Definitions and includes}{NWBBR8-DefO-1}{\nwixu {NWBBR8-BBR8.2-1}\nwixd {NWBBR8-DefO-1}\nwixd {NWBBR8-DefO-2}\nwixd {NWBBR8-DefO-3}}}
\nwixadds{c}{{Implementation}{NWBBR8-ImpE-1}{\nwixu {NWBBR8-BBR8.3-1}\nwixd {NWBBR8-ImpE-1}\nwixd {NWBBR8-ImpE-2}\nwixd {NWBBR8-ImpE-3}\nwixd {NWBBR8-ImpE-4}\nwixd {NWBBR8-ImpE-5}\nwixd {NWBBR8-ImpE-6}\nwixd {NWBBR8-ImpE-7}\nwixd {NWBBR8-ImpE-8}\nwixd {NWBBR8-ImpE-9}\nwixd {NWBBR8-ImpE-A}\nwixd {NWBBR8-ImpE-B}}}
\nwixadds{c}{{Inline implementation}{NWBBR8-InlL-1}{\nwixu {NWBBR8-BBR8.2-1}\nwixd {NWBBR8-InlL-1}\nwixd {NWBBR8-InlL-2}}}
\nwixadds{c}{{Private members}{NWBBR8-PriF-1}{\nwixu {NWBBR8-BBR8.2-1}\nwixd {NWBBR8-PriF-1}\nwixd {NWBBR8-PriF-2}\nwixd {NWBBR8-PriF-3}\nwixd {NWBBR8-PriF-4}\nwixd {NWBBR8-PriF-5}\nwixd {NWBBR8-PriF-6}\nwixd {NWBBR8-PriF-7}\nwixd {NWBBR8-PriF-8}}}
\nwixadds{c}{{Public members}{NWBBR8-PubE-1}{\nwixu {NWBBR8-BBR8.2-1}\nwixd {NWBBR8-PubE-1}}}
\newsublabel{NWBBR8-ImpE-B}{{}{11}}
\newsublabel{NWBBR8-PriF-8}{{}{11}}
